[
    {
        "name": "michel",
        "poids": 85
    },
    {
        "name": "idriss",
        "poids": 140
    },
    {
        "name": "jean-yves",
        "poids": 45
    },
    {
        "name": "michel",
        "poids": 150
    },
    {
        "name": "idriss",
        "poids": 39
    }
]