[
    {
        "name": "michel",
        "password": "password",
        "age": 25,
        "taille": 180,
        "poids": 80
    },
    {
        "name": "idriss",
        "password": "motdepasse",
        "age": 8,
        "taille": 230,
        "poids": 120
    },
    {
        "name": "jean-yves",
        "password": "pikachu",
        "age": 55,
        "taille": 140,
        "poids": 50
    }
]